…
    ## Rows: 4342 Columns: 20
    ## ── Column specification ────────────────────────────────────────────────────────
    ## Delimiter: ","
    ## dbl (20): babysex, bhead, blength, bwt, delwt, fincome, frace, gaweeks, malf...
    ## 
    ## ℹ Use `spec()` to retrieve the full column specification for this data.
    ## ℹ Specify the column types or set `show_col_types = FALSE` to quiet this message.

``` r
bwt
```

    ## # A tibble: 4,342 × 20
    ##    babysex bhead blength   bwt delwt fincome frace gaweeks malform menarche
    ##    <fct>   <dbl>   <dbl> <dbl> <dbl>   <dbl> <fct>   <dbl> <lgl>      <dbl>
    ##  1 female     34      51  3629   177      35 white    39.9 FALSE         13
    ##  2 male       34      48  3062   156      65 black    25.9 FALSE         14
    ##  3 female     36      50  3345   148      85 white    39.9 FALSE         12
    ##  4 male       34      52  3062   157      55 white    40   FALSE         14
    ##  5 female     34      52  3374   156       5 white    41.6 FALSE         13
    ##  6 male       33      52  3374   129      55 white    40.7 FALSE         12
    ##  7 female     33      46  2523   126      96 black    40.3 FALSE         14
    ##  8 female     33      49  2778   140       5 white    37.4 FALSE         12
    ##  9 male       36      52  3515   146      85 white    40.3 FALSE         11
    ## 10 male       33      50  3459   169      75 black    40.7 FALSE         12
    ## # … with 4,332 more rows, and 10 more variables: mheight <dbl>, momage <dbl>,
    ## #   mrace <fct>, parity <dbl>, pnumlbw <dbl>, pnumsga <dbl>, ppbmi <dbl>,
    ## #   ppwt <dbl>, smoken <dbl>, wtgain <dbl>
…
